{
  "project_info": {
    "project_number": "484056568412",
    "project_id": "tobiko-cf19c",
    "storage_bucket": "tobiko-cf19c.appspot.com"
  },
  "client": [
    {
      "client_info": {
        "mobilesdk_app_id": "1:484056568412:android:8071d83fe06a866c364c99",
        "android_client_info": {
          "package_name": "com.tobiko"
        }
      },
      "oauth_client": [
        {
          "client_id": "484056568412-i637ujrsorl9h0v4jcahftsiqjcr8984.apps.googleusercontent.com",
          "client_type": 1,
          "android_info": {
            "package_name": "com.tobiko",
            "certificate_hash": "5e8f16062ea3cd2c4a0d547876baa6f38cabf625"
          }
        },
        {
          "client_id": "484056568412-qbl4qo03co26e7oslamopchucssnmn4k.apps.googleusercontent.com",
          "client_type": 3
        }
      ],
      "api_key": [
        {
          "current_key": "AIzaSyDplzgKQ1CXlGE__KU2IyOQIvHJ4xRDk_Y"
        }
      ],
      "services": {
        "appinvite_service": {
          "other_platform_oauth_client": [
            {
              "client_id": "484056568412-qbl4qo03co26e7oslamopchucssnmn4k.apps.googleusercontent.com",
              "client_type": 3
            }
          ]
        }
      }
    }
  ],
  "configuration_version": "1"
}